1
0,6837083618368511213760556471 1,1423137888326474084826794243 -0,0278229936842333374767529778 0,7706972865021018564466881114
0,2412175807927325671334249130 0,7348765611705254220532293531 -1,1544052919735765681278146028 0,75317050981110357254009778
-0,8887212013091855468874998920 -0,9827839342091838969404316468 -0,2890883754910484014171602678 1,0470313664499991750264658774
0,2304103822025667297718038815 -0,9675170669765629403608902764 -0,3158221005420074397642440564 1,598963724589564835066347079
-0,3610395479491046026588718732 0,3115263387891859319976679570 0,8509698984999221469958671305 0,6637170566308547326717300849
-0,9101128081452295560186427084 0,4949336047273468756524224231 0,1461138071263106876067431526 0,2974767935637117841644674342
0,1380593194390889564462360915 0,5664202770078665670549032961 0,4528142572430642476757124428 0,7858195212156111946956663977
-0,7806959285753317397646437977 -0,5017060548042222987417100743 -0,5206153199453579058835800043 0,8605050631144452794885331383
0,0565279363428441204919474609 0,7759651712831244524575058620 -0,4832825612264895971781240006 0,6402813825298598340172207994
0,4182972858612484339319112080 -0,3505435966215538149360594742 -0,1745337648334418817435714992 1,3844204412414011244339853411
-0,2383194706114200145161073108 -0,1995521558645818462828479138 0,2344947625156821508297006544 0,7985354900875492218739487580
-0,6704771092355681585373205429 0,1958435768459744183496472185 1,0759431741353713344610161631 1,3985766092958760063114950286
0,6858866861744609215548679173 -1,0643288329160234694724706010 -0,0401658691155368864289633832 0,258531575613438548090481666
-1,1526463215015669922113252244 -0,2483693315114166017012140243 0,5756112729038266941960849017 0,4631131441897132492911658144
-0,1585005566729130038273255170 0,4500934587959132732069913565 -0,1569720559671594765184058004 1,2923571524758770330341256978
-0,8726382344517885503257448784 1,0068033680503979003564470164 -0,2028859229554680471616750543 1,46904128934676960161273705
0,6925319241154237336464101462 0,9517259267570412296724586701 0,1915522253031332527588802741 2,3937680014663197228751038802
0,6704660326291763815204955129 -0,0528061707856363277936264406 -1,0916971625567363152787260270 0,7365782642505837053272583024
-0,6686404347566230656625607117 -0,3525143862205317028941310524 -0,8788007194734396995699385530 -0,1262349633355630855103806848
-0,8942616961675861545810783993 -0,5921092834289201487857716785 0,1925606567554205086230916672 0,0570401968649970282352349554
