1
-0,8891173244125274302581133208 -0,1833854208270991566818858517 1
0,1879027362157303572802153455 -0,1747298358221576643377822969 1,002
-0,4329686188135142920951094188 0,7468330146699695712878402362 1,002
0,3454968495585590245466321024 -0,2056771148493361736036589818 1
-0,3636675480934635223091296256 -0,9726442828964982667196321257 1
-0,8371533838264654225058193402 0,1311916965791383206520799203 1
0,8657897397081386729060506548 0,7450020806691712804640157660 1
-1,0989428783857790006179062634 0,1755391163439117912054848055 1
-1,0054507982669039279988763594 1,0077134489165132054814913797 1,002
0,6146407085508336325145696278 -1,0589246996854965333836853968 1
0,9534886944617851221581282862 -0,1225799620307250670620547933 1,502
0,1072833524968446531439392203 1,0834989338559080308249012233 1,5
-0,5153997750795386315435907783 -0,6696449592855092128724486770 1,5
0,1292793807079225857275195966 -1,1182014061328269015835846854 1,5
-0,5097988826051415082211194621 -0,9978181120526756190099877907 1,5
0,9688245173330894724611574636 -0,4187993701472103608509533577 1,502
-0,5642637843388364405902342134 0,2313997113481217483756413271 1,502
-0,4778168323858363355690786185 0,1408820904151612432490400219 1,502
-0,2696523187793048318430933113 -0,9448749844059981543434688461 1,5
-0,1341100726485545073688420457 0,0386529961033840986956145646 1,5
