0,0 2,841470984807896 2
1,0 0,841470984807896 1
1,0 2,909297426825682 2
2,0 0,909297426825682 1
2,0 2,141120008059867 2
3,0 0,141120008059867 1
3,0 1,243197504692072 2
4,0 -0,756802495307928 1
4,0 1,041075725336862 2
